
{
  "name": "Re-Dark",
  "description": "dark reader but a theme with momo font/ Based on discord recolor/burple recolor",
  "version": "0.0.1",
  "author": "oomfie",
  "theme": "/redark.theme.css",
  "license": "GPL V2",
  "consent": "true"
}